%YAML 1.1
%TAG !u! tag:unity3d.com,2011:
--- !u!162 &1
EditorUserSettings:
  m_ObjectHideFlags: 0
  serializedVersion: 4
  m_ConfigSettings:
    RecentlyUsedScenePath-0:
      value: 22424703114646680c031c2e1530104232573924252527242426137cb7ae6476b6a805e8ea2a33392a4dbd7c37370f38fe0f4938fd020405140abd3d01ed1907148a27f613c61810ce592fc5c413dfe6d196e7facae2f3dd90caaefbe0e9
      flags: 0
    RecentlyUsedScenePath-1:
      value: 22424703114646680c031c2e1530104232573924252527242426137cb7ae6476b6a805e8ea2a33392a4dbe7c37370c2ffe0f4634c502071b1d0bb31b1ff6040a
      flags: 0
    RecentlyUsedScenePath-2:
      value: 22424703114646680c031c2e1530104232573924252527242426137cb7ae6476b6a805e8ea2a33392a4dbb7c2736002df3091d0ee4443528190fef0f12eb15015fd016cc0ed1
      flags: 0
    RecentlyUsedScenePath-3:
      value: 22424703114646680e0b0227036c6c111b07142f1f2b233e2867083debf42d
      flags: 0
    vcSharedLogLevel:
      value: 0d5e400f0650
      flags: 0
  m_VCAutomaticAdd: 1
  m_VCDebugCom: 0
  m_VCDebugCmd: 0
  m_VCDebugOut: 0
  m_SemanticMergeMode: 2
  m_VCShowFailedCheckout: 1
  m_VCOverwriteFailedCheckoutAssets: 1
  m_VCProjectOverlayIcons: 1
  m_VCHierarchyOverlayIcons: 1
  m_VCOtherOverlayIcons: 1
  m_VCAllowAsyncUpdate: 1
